coursera practical machine learning” course project
…
train_data <- read.csv("./pml-training.csv", stringsAsFactors = FALSE)
validation_data <- read.csv("./pml-testing.csv", stringsAsFactors = FALSE)

Dataset description

#Convert the data to a data frame table type to simplify visualization
tbl_trainset<-tbl_df(train_data)
class(tbl_trainset)

## [1] "tbl_df"     "tbl"        "data.frame"

tbl_trainset

## # A tibble: 19,622 x 160
##        X user_name raw_timestamp_p~ raw_timestamp_p~ cvtd_timestamp new_window
##    <int> <chr>                <int>            <int> <chr>          <chr>     
##  1     1 carlitos        1323084231           788290 05/12/2011 11~ no        
##  2     2 carlitos        1323084231           808298 05/12/2011 11~ no        
##  3     3 carlitos        1323084231           820366 05/12/2011 11~ no        
##  4     4 carlitos        1323084232           120339 05/12/2011 11~ no        
##  5     5 carlitos        1323084232           196328 05/12/2011 11~ no        
##  6     6 carlitos        1323084232           304277 05/12/2011 11~ no        
##  7     7 carlitos        1323084232           368296 05/12/2011 11~ no        
##  8     8 carlitos        1323084232           440390 05/12/2011 11~ no        
##  9     9 carlitos        1323084232           484323 05/12/2011 11~ no        
## 10    10 carlitos        1323084232           484434 05/12/2011 11~ no        
## # ... with 19,612 more rows, and 154 more variables: num_window <int>,
## #   roll_belt <dbl>, pitch_belt <dbl>, yaw_belt <dbl>, total_accel_belt <int>,
## #   kurtosis_roll_belt <chr>, kurtosis_picth_belt <chr>,
## #   kurtosis_yaw_belt <chr>, skewness_roll_belt <chr>,
## #   skewness_roll_belt.1 <chr>, skewness_yaw_belt <chr>, max_roll_belt <dbl>,
## #   max_picth_belt <int>, max_yaw_belt <chr>, min_roll_belt <dbl>,
## #   min_pitch_belt <int>, min_yaw_belt <chr>, amplitude_roll_belt <dbl>,
## #   amplitude_pitch_belt <int>, amplitude_yaw_belt <chr>,
## #   var_total_accel_belt <dbl>, avg_roll_belt <dbl>, stddev_roll_belt <dbl>,
…
